…
Â¡Hola!

</details>

> AsÃ­ se escribe una cita de bloque.

El paquete [emo](https://github.com/hadley/emo) sirve para agregar
emojis a los documentos ğŸ‰ Para ver la lista de emojis asociados a una
palabra:

``` r
emo::ji_find("woman")
```

    ## # A tibble: 68 x 2
    ##    name                 emoji
    ##    <chr>                <chr>
    ##  1 woman                ğŸ‘©   
    ##  2 older_woman          ğŸ‘µ   
    ##  3 woman_student        ğŸ‘©â€ğŸ“   
    ##  4 woman_teacher        ğŸ‘©â€ğŸ«   
    ##  5 woman_farmer         ğŸ‘©â€ğŸŒ¾   
    ##  6 woman_cook           ğŸ‘©â€ğŸ³   
    ##  7 woman_mechanic       ğŸ‘©â€ğŸ”§   
    ##  8 woman_factory_worker ğŸ‘©â€ğŸ­   
    ##  9 woman_office_worker  ğŸ‘©â€ğŸ’¼   
    ## 10 woman_scientist      ğŸ‘©â€ğŸ”¬   
    ## # â€¦ with 58 more rows
…
